Advanced R Part I
…
teamIDs <- unique(scoreData$awayTeam)
reports <- tibble(
  teamIDs = teamIDs,
  filename = paste0("TeamID-", teamIDs, ".html")
,
  params = lapply(teamIDs, FUN = function(x){list(team = x)})
)

Parameters (Advanced)

reports

## # A tibble: 32 x 3
##   teamIDs             filename                        params    
##   <chr>               <chr>                           <list>    
## 1 San Francisco 49ers TeamID-San Francisco 49ers.html <list [1]>
## 2 Minnesota Vikings   TeamID-Minnesota Vikings.html   <list [1]>
## 3 New Orleans Saints  TeamID-New Orleans Saints.html  <list [1]>
## 4 New York Jets       TeamID-New York Jets.html       <list [1]>
## 5 Arizona Cardinals   TeamID-Arizona Cardinals.html   <list [1]>
## # ... with 27 more rows
…
