Markdown and Git
…
The Build A Blog With Jekyll And GitHub Pages article here (opens in new window) outlines the use of github for creating a blog. You should read this article up to the “Optional Steps” section. Following along with this article is roughly half of your “First Blog post” assignment (the other half is you writing something!).

Markdown Parameters

Parameters can be added to the YAML header

Can help to automate reports!

Suppose we are dealing with our football boxscore data set

NFLData <- read_csv("../datasets/scoresFull.csv")
NFLData

## # A tibble: 3,471 x 82
##   week  date  day   season awayTeam     AQ1   AQ2   AQ3   AQ4   AOT  AOT2 AFinal
##   <chr> <chr> <chr>  <dbl> <chr>      <dbl> <dbl> <dbl> <dbl> <dbl> <dbl>  <dbl>
## 1 1     5-Sep Thu     2002 San Franc~     3     0     7     6    -1    -1     16
## 2 1     8-Sep Sun     2002 Minnesota~     3    17     0     3    -1    -1     23
## 3 1     8-Sep Sun     2002 New Orlea~     6     7     7     0     6    -1     26
## 4 1     8-Sep Sun     2002 New York ~     0    17     3    11     6    -1     37
## 5 1     8-Sep Sun     2002 Arizona C~    10     3     3     7    -1    -1     23
## # ... with 3,466 more rows, and 70 more variables: homeTeam <chr>, HQ1 <dbl>,
## #   HQ2 <dbl>, HQ3 <dbl>, HQ4 <dbl>, HOT <dbl>, HOT2 <dbl>, HFinal <dbl>,
## #   stadium <chr>, startTime <time>, toss <chr>, roof <chr>, surface <chr>,
## #   duration <dbl>, attendance <chr>, weather <chr>, vegasLine <chr>, OU <chr>,
## #   AfirstDowns <dbl>, AnetPassYds <dbl>, AtotalYds <dbl>, Aturnovers <dbl>,
## #   AtotalPlays <dbl>, HfirstDowns <dbl>, HnetPassYds <dbl>, HtotalYds <dbl>,
## #   Hturnovers <dbl>, HtotalPlays <dbl>, OUvalue <dbl>, OUresult <chr>,
## #   awayRushAtt <dbl>, awayRushYds <dbl>, awayRushTD <dbl>, awayPassComp <dbl>,
## #   awayPassAtt <dbl>, awayPassYds <dbl>, awayPassTD <dbl>, awayPassInt <dbl>,
…
#get unique teams
teamIDs <- unique(NFLData$awayTeam)
#create filenames
output_file <- paste0(teamIDs, ".html")
#create a list for each team with just the team name parameter
params = lapply(teamIDs, FUN = function(x){list(team = x)})

#put into a data frame 
reports <- tibble(output_file, params)

Parameters

reports

## # A tibble: 32 x 2
##   output_file              params          
##   <chr>                    <list>          
## 1 San Francisco 49ers.html <named list [1]>
## 2 Minnesota Vikings.html   <named list [1]>
## 3 New Orleans Saints.html  <named list [1]>
## 4 New York Jets.html       <named list [1]>
## 5 Arizona Cardinals.html   <named list [1]>
## # ... with 27 more rows
…
